<define-tag pagetitle>DLA-835-1 cakephp</define-tag>
<define-tag report_date>2017-2-24</define-tag>
<define-tag secrefs>CVE-2016-4793</define-tag>
<define-tag packages>cakephp</define-tag>
<define-tag isvulnerable>yes</define-tag>
<define-tag fixed>yes</define-tag>
<define-tag fixed-section>no</define-tag>

#use wml::debian::security

