<define-tag pagetitle>DSA-4385-1 dovecot</define-tag>
<define-tag report_date>2019-2-05</define-tag>
<define-tag secrefs>CVE-2019-3814</define-tag>
<define-tag packages>dovecot</define-tag>
<define-tag isvulnerable>yes</define-tag>
<define-tag fixed>yes</define-tag>
<define-tag fixed-section>no</define-tag>

#use wml::debian::security



</dl>
